<svg xmlns="http://www.w3.org/2000/svg" width="331.788" height="79.944" viewBox="0 0 331.788 79.944">
  <path id="google_play" d="M297.974,55.271a12.071,12.071,0,0,1,12.014-12.109,11.9,11.9,0,0,1,12.128,12.071,12.071,12.071,0,1,1-24.141.038Zm4.892,3.138a7.328,7.328,0,0,0,7.122,4.152,6.988,6.988,0,0,0,6.817-7.328,7.328,7.328,0,1,0-13.939,3.177Zm-19.32-15.247h-.029a11.9,11.9,0,0,1,12.128,12.071,12.071,12.071,0,1,1-12.1-12.071Zm0,19.4h-.029a6.988,6.988,0,0,0,6.817-7.328,7.328,7.328,0,1,0-6.788,7.328Zm-31.5-15.679v-.14h17.239a16.671,16.671,0,0,1,.283,3.208,16.578,16.578,0,0,1-17.525,17.239,18.773,18.773,0,1,1,0-37.518,17.864,17.864,0,0,1,12.865,5.311L261.3,38.591a13.062,13.062,0,0,0-9.288-3.663,13.634,13.634,0,0,0,0,27.267,12.55,12.55,0,0,0,9.456-3.748A10.708,10.708,0,0,0,264.31,52H252.039Zm128.677,3.99.6,1.271-16.162,6.671a6.137,6.137,0,0,0,5.851,3.663,6.9,6.9,0,0,0,5.937-3.351l4.13,2.84a12.014,12.014,0,0,1-10.054,5.34A11.813,11.813,0,0,1,359.04,55.233a11.14,11.14,0,0,1,21.7-4.374Zm-16.473,4.034,10.8-4.488a4.689,4.689,0,0,0-4.488-2.541,6.617,6.617,0,0,0-6.305,7.042Zm-7.811,11.7H351.13V31.091h5.311Zm-14.2-20.733h.2V43.883h4.885V65.61c0,8.92-5.14,12.582-11.362,12.582a11.5,11.5,0,0,1-10.708-7.128l4.628-1.931a6.671,6.671,0,0,0,6.077,4.288c3.977,0,6.448-2.471,6.448-7.1v-1.96h-.172a8.237,8.237,0,0,1-6.353,2.84,12.1,12.1,0,0,1,0-24.17,8.523,8.523,0,0,1,6.359,2.827Zm-5.88,16.7h-.029a6.76,6.76,0,0,0,6.477-7.328,6.817,6.817,0,0,0-6.448-7.328,7.357,7.357,0,0,0,0,14.657ZM392.9,31.1h12.706a11.048,11.048,0,1,1,.029,22.039h-7.414V66.6h-5.311Zm12.706,17.042.114.057a6.078,6.078,0,0,0,0-12.157h-7.528v12.1Zm32.747-5.111.143.086a9.79,9.79,0,0,1,10.765,9.828V66.608h-5.111v-2.84h-.172a7.468,7.468,0,0,1-6.817,3.408,8.208,8.208,0,0,1-8.805-7.811c0-5.14,5.14-7.983,10.225-7.983a11.728,11.728,0,0,1,5.54,1.363v-.381a5.111,5.111,0,0,0-5.68-4.574,5.025,5.025,0,0,0-4.828,2.614l-4.714-1.96a9.942,9.942,0,0,1,9.453-5.426ZM437.7,62.491l.143.086a6.417,6.417,0,0,0,6.22-5.68,9.431,9.431,0,0,0-4.828-1.194c-2.668,0-5.68.953-5.68,3.777a3.691,3.691,0,0,0,4.148,3Zm30.177-18.6h5.908L459.242,77.373H453.7l5.4-11.956-9.444-21.534h5.68l6.305,15.393h.172ZM425.46,66.6h-5.311v-35.5h5.311ZM233.974,21.917v-5.67h1.76a8.116,8.116,0,0,0,2.16-6.534V1.27h11.362V16.2h1.817v5.689h-2.1v-3.58H236.032v3.609Zm4.4-5.594H246.9V3.369h-6.9v6.42a11.353,11.353,0,0,1-1.617,6.531Zm17.268-.229a9.212,9.212,0,0,1,0-12.639,8.805,8.805,0,0,1,12.5,0,9.174,9.174,0,0,1,0,12.639,8.862,8.862,0,0,1-12.5,0Zm10.883-1.436a7.271,7.271,0,0,0,0-9.771,6.559,6.559,0,0,0-9.259,0,7.271,7.271,0,0,0,0,9.771,6.56,6.56,0,0,0,9.26,0Zm8.84,1.452a8.694,8.694,0,0,1-2.541-6.337A8.691,8.691,0,0,1,281.688.879a7.868,7.868,0,0,1,6.248,2.84L286.4,5.2a5.68,5.68,0,0,0-4.743-2.16,6.448,6.448,0,0,0-4.714,1.874,7.306,7.306,0,0,0,0,9.847,6.448,6.448,0,0,0,4.714,1.874,6.731,6.731,0,0,0,5.2-2.541l1.534,1.534a8.3,8.3,0,0,1-2.84,2.224,8.942,8.942,0,0,1-3.863.794,8.691,8.691,0,0,1-6.328-2.516ZM295.128,18.3V3.366h-4.765V1.27h11.7v2.1h-4.743V18.3Zm15.536-2.668a4.285,4.285,0,0,1-3.92,3.04,4.368,4.368,0,0,1-1.7-.368l.569-2.017a2.3,2.3,0,0,0,1.137.318,2.014,2.014,0,0,0,1.194-.283,2.693,2.693,0,0,0,.766-1.08l.635-1.363L303.644,1.3h2.586l4.2,9.771,4.088-9.8h2.586Zm8.91-14.358H331.9V18.309h-2.185V3.379h-7.941v14.93h-2.2Zm16.216,0h2.185V8.576H346.5V1.27h2.185V18.309H346.5v-7.7h-8.519v7.7h-2.185Zm18.262,14.825a9.212,9.212,0,0,1,0-12.639,8.805,8.805,0,0,1,12.5,0,9.174,9.174,0,0,1,0,12.639,8.862,8.862,0,0,1-12.49,0Zm10.883-1.436a7.271,7.271,0,0,0,0-9.771,6.559,6.559,0,0,0-9.26,0,7.271,7.271,0,0,0,0,9.771A6.559,6.559,0,0,0,364.935,14.659ZM378,18.293V1.27h6.162a5,5,0,0,1,3.466,1.306A4.288,4.288,0,0,1,389.105,5.9a3.713,3.713,0,0,1-.635,2.131,3.944,3.944,0,0,1-1.677,1.391,4.323,4.323,0,0,1,2.074,1.477,3.862,3.862,0,0,1,.823,2.443,4.466,4.466,0,0,1-1.534,3.466,5.251,5.251,0,0,1-3.634,1.391h-6.5Zm2.185-9.742h3.977a2.541,2.541,0,0,0,1.989-.823,2.541,2.541,0,0,0,.114-3.634,2.443,2.443,0,0,0-1.906-.823H380.3V8.484Zm0,7.64h4.4a2.614,2.614,0,0,0,2.046-.88,2.811,2.811,0,0,0-2.046-4.765h-4.317v5.7ZM145.283,1.518a5.3,5.3,0,0,1,4.863.807L193.6,26.171,181.768,38ZM197.457,28.34l15.038,8.237c4.479,2.44,4.479,6.458,0,8.929l-15,8.224L184.792,41.024Zm-3.863,27.515L150.149,79.746a5.33,5.33,0,0,1-4.857.781l36.479-36.479Zm-51.278,21.6a5.782,5.782,0,0,1-.308-2.252V6.854a5.976,5.976,0,0,1,.318-2.252l36.431,36.422Z" transform="translate(-141.997 -0.854)" fill="#ff4800" fill-rule="evenodd"/>
</svg>
