<svg xmlns="http://www.w3.org/2000/svg" width="649.25" height="104.512" viewBox="0 0 649.25 104.512">
  <g id="Layer_x0020_1" transform="translate(0.25)">
    <g id="_3154713530960" transform="translate(-0.25)">
      <path id="Контур_943" data-name="Контур 943" d="M46.305,18H22V78.763H47.52A30.086,30.086,0,0,0,77.9,48.381c0-15.8-13.368-29.166-29.166-30.381ZM37.8,32.583v31.6H47.52c8.507,0,14.583-7.292,14.583-15.8s-6.076-15.8-14.583-15.8Z" transform="translate(5.039 3.875)" fill="#ff4800" fill-rule="evenodd"/>
      <path id="Контур_944" data-name="Контур 944" d="M75,48.6c0,4.861,1.215,8.507,2.431,12.153a28.7,28.7,0,0,0,7.292,10.937,26.461,26.461,0,0,0,9.722,6.076c4.861,1.215,8.507,2.431,13.368,2.431a43.687,43.687,0,0,0,13.368-2.431,26.461,26.461,0,0,0,9.722-6.076,28.7,28.7,0,0,0,7.292-10.937c2.431-3.646,2.431-7.292,2.431-12.153s0-8.507-2.431-12.153a18.9,18.9,0,0,0-7.292-9.722,18.9,18.9,0,0,0-9.722-7.292A43.687,43.687,0,0,0,107.812,17c-4.861,0-8.507,1.215-13.368,2.431a18.9,18.9,0,0,0-9.722,7.292,18.9,18.9,0,0,0-7.292,9.722C76.215,40.09,75,43.736,75,48.6Zm17.014,0c0-2.431,0-4.861,1.215-7.292a16.776,16.776,0,0,1,3.646-4.861c1.215-2.431,2.431-3.646,4.861-3.646a10.956,10.956,0,0,1,6.076-1.215c2.431,0,4.861,0,6.076,1.215,2.431,0,3.646,1.215,4.861,3.646,2.431,1.215,3.646,2.431,3.646,4.861,1.215,2.431,1.215,4.861,1.215,7.292s0,4.861-1.215,7.292c0,2.431-1.215,3.646-3.646,6.076-1.215,1.215-2.431,2.431-4.861,2.431a9.283,9.283,0,0,1-6.076,2.431c-2.431,0-3.646-1.215-6.076-2.431-2.431,0-3.646-1.215-4.861-2.431-1.215-2.431-2.431-3.646-3.646-6.076S92.014,51.027,92.014,48.6Z" transform="translate(16.448 3.659)" fill="#ff4800"/>
      <path id="Контур_945" data-name="Контур 945" d="M136,48.61c1.215,4.861,1.215,9.722,2.431,14.583a42.412,42.412,0,0,0,7.292,10.937,18.9,18.9,0,0,0,9.722,7.292c3.646,1.215,7.292,2.431,12.153,2.431a43.687,43.687,0,0,0,13.368-2.431c3.646-1.215,6.076-3.646,9.722-6.076a26.461,26.461,0,0,0,6.076-9.722,29.023,29.023,0,0,0,2.431-10.937c0-3.646-1.215-7.292-2.431-10.937s-3.646-6.076-6.076-8.507-4.861-4.861-8.507-6.076a24.267,24.267,0,0,0-10.937-2.431c-1.215,0-3.646,0-4.861,1.215-2.43,0-3.646,0-4.861,1.215s-2.431,1.215-3.646,2.431c-1.215,0-1.215,1.215-2.431,1.215-1.215,1.215-1.215,1.215-1.215,2.431h-1.215q0-7.292,3.646-10.937a10.956,10.956,0,0,1,7.292-7.292c3.646-2.431,8.507-2.431,14.583-2.431h14.583V0H176.1c-8.507,0-15.8,1.215-21.875,4.861a43.883,43.883,0,0,0-13.368,15.8C138.431,27.951,137.215,37.673,136,48.61Zm18.229,6.076c0-3.646,0-6.076,1.215-7.292,1.215-2.431,2.431-4.861,4.861-6.076S165.166,40.1,167.6,40.1s4.861,0,7.292,1.215,3.646,3.646,4.861,6.076c1.215,1.215,2.431,3.646,2.431,7.292s-1.215,6.076-2.431,8.507a9.488,9.488,0,0,1-4.861,4.861c-2.431,1.215-4.861,2.431-7.292,2.431s-4.861-1.215-7.292-2.431a9.488,9.488,0,0,1-4.861-4.861C154.229,60.763,154.229,58.332,154.229,54.686Z" transform="translate(29.578)" fill="#ff4800"/>
      <path id="Контур_946" data-name="Контур 946" d="M195,100.853h17.014V70.471h0l2.431,2.431,2.431,2.431c1.215,1.215,2.43,2.431,3.646,2.431,1.215,1.215,3.646,1.215,4.861,2.431h6.076c3.646,0,7.292-1.215,10.937-2.431s6.076-3.646,8.507-6.076a26.46,26.46,0,0,0,6.076-9.722A43.687,43.687,0,0,0,259.409,48.6a43.687,43.687,0,0,0-2.431-13.368,26.46,26.46,0,0,0-6.076-9.722c-2.431-2.431-4.861-4.861-8.507-6.076S235.1,17,231.458,17h-6.076c-1.215,1.215-3.646,1.215-4.861,2.431s-2.431,1.215-3.646,2.431l-2.431,2.431-2.431,2.431h0V18.215H195ZM212.014,48.6a22.894,22.894,0,0,1,2.431-9.722c1.215-2.431,2.431-4.861,4.861-6.076s4.861-1.215,8.507-1.215c2.431,0,4.861,0,7.292,1.215s3.646,3.646,4.861,6.076a22.894,22.894,0,0,1,2.431,9.722,22.894,22.894,0,0,1-2.431,9.722c-1.215,2.431-2.431,4.861-4.861,6.076s-4.861,2.431-7.292,2.431c-3.646,0-6.076-1.215-8.507-2.431s-3.646-3.646-4.861-6.076A22.894,22.894,0,0,1,212.014,48.6Z" transform="translate(42.279 3.659)" fill="#ff4800"/>
      <path id="Контур_947" data-name="Контур 947" d="M255,48.6c0,4.861,1.215,8.507,2.43,12.153a28.7,28.7,0,0,0,7.292,10.937,26.461,26.461,0,0,0,9.722,6.076,43.687,43.687,0,0,0,13.368,2.431c4.861,0,8.507-1.215,13.368-2.431a26.461,26.461,0,0,0,9.722-6.076,28.7,28.7,0,0,0,7.292-10.937c1.215-3.646,2.431-7.292,2.431-12.153s-1.215-8.507-2.431-12.153a18.9,18.9,0,0,0-7.292-9.722,18.9,18.9,0,0,0-9.722-7.292C296.319,18.215,292.673,17,287.812,17a43.687,43.687,0,0,0-13.368,2.431,18.9,18.9,0,0,0-9.722,7.292,18.9,18.9,0,0,0-7.292,9.722C256.215,40.09,255,43.736,255,48.6Zm17.014,0c0-2.431,0-4.861,1.215-7.292a16.776,16.776,0,0,1,3.646-4.861c1.215-2.431,2.431-3.646,4.861-3.646,1.215-1.215,3.646-1.215,6.076-1.215s4.861,0,6.076,1.215c2.431,0,3.646,1.215,4.861,3.646a16.776,16.776,0,0,1,3.646,4.861c1.215,2.431,1.215,4.861,1.215,7.292s0,4.861-1.215,7.292-2.431,3.646-3.646,6.076c-1.215,1.215-2.431,2.431-4.861,2.431a8.811,8.811,0,0,1-12.153,0c-2.431,0-3.646-1.215-4.861-2.431-1.215-2.431-2.431-3.646-3.646-6.076S272.014,51.027,272.014,48.6Z" transform="translate(55.194 3.659)" fill="#ff4800"/>
      <path id="Контур_948" data-name="Контур 948" d="M316,48.6c0,4.861,1.215,8.507,2.431,12.153s3.646,7.292,6.076,10.937c3.646,2.431,7.292,4.861,10.937,6.076A43.178,43.178,0,0,0,347.6,80.193c3.646,0,7.292,0,9.722-1.215,2.431,0,4.861-1.215,7.292-2.431,1.215-1.215,3.646-2.431,4.861-3.646a16.776,16.776,0,0,0,3.646-4.861,16.776,16.776,0,0,0,3.646-4.861c1.215-2.431,1.215-3.646,2.431-6.076H362.18c-1.215,1.215-1.215,1.215-1.215,2.431-1.215,0-1.215,1.215-2.431,2.431L356.1,64.395c-1.215,0-2.431,1.215-3.646,1.215s-2.431,1.215-4.861,1.215a9.213,9.213,0,0,1-4.861-2.431c-2.431,0-3.646-1.215-4.861-2.431-2.431-2.431-2.431-3.646-3.646-6.076s-1.215-4.861-1.215-7.292,0-4.861,1.215-7.292,1.215-3.646,3.646-4.861c1.215-2.431,2.431-3.646,4.861-3.646,1.215-1.215,3.646-1.215,4.861-1.215h4.861c1.215,0,2.431,1.215,3.646,2.431a4.243,4.243,0,0,1,2.431,1.215c1.215,1.215,1.215,2.431,2.431,2.431,0,1.215,0,2.431,1.215,2.431h17.014c-1.215-2.431-2.431-3.646-2.431-6.076-1.215-1.215-2.431-3.646-3.646-4.861a16.776,16.776,0,0,0-3.646-4.861c-2.431-1.215-3.646-2.431-6.076-3.646a9.283,9.283,0,0,0-6.076-2.431C353.673,17,351.242,17,347.6,17a43.178,43.178,0,0,0-12.153,2.431,28.7,28.7,0,0,0-10.937,7.292,26.46,26.46,0,0,0-6.076,9.722C317.215,40.09,316,43.736,316,48.6Z" transform="translate(68.324 3.659)" fill="#ff4800"/>
      <path id="Контур_949" data-name="Контур 949" d="M375,78.763h15.8V54.458h8.507l15.8,24.305h18.229L412.673,45.951,432.117,18H413.888l-15.8,23.09H390.8V18H375Z" transform="translate(81.024 3.875)" fill="#ff4800"/>
      <path id="Контур_950" data-name="Контур 950" d="M424,48.6c0,4.861,1.215,8.507,2.431,12.153,2.43,3.646,3.646,7.292,7.292,10.937a26.461,26.461,0,0,0,9.722,6.076c4.861,1.215,8.507,2.431,13.368,2.431a43.687,43.687,0,0,0,13.368-2.431,26.461,26.461,0,0,0,9.722-6.076,28.7,28.7,0,0,0,7.292-10.937c2.431-3.646,2.431-7.292,2.431-12.153s0-8.507-2.431-12.153a18.9,18.9,0,0,0-7.292-9.722,18.9,18.9,0,0,0-9.722-7.292A43.687,43.687,0,0,0,456.812,17c-4.861,0-8.507,1.215-13.368,2.431a18.9,18.9,0,0,0-9.722,7.292c-3.646,2.431-4.861,6.076-7.292,9.722C425.215,40.09,424,43.736,424,48.6Zm17.014,0c0-2.431,0-4.861,1.215-7.292a16.777,16.777,0,0,1,3.646-4.861,6.512,6.512,0,0,1,4.861-3.646,10.956,10.956,0,0,1,6.076-1.215c2.43,0,4.861,0,6.076,1.215,2.43,0,3.646,1.215,4.861,3.646,2.43,1.215,3.646,2.431,3.646,4.861,1.215,2.431,1.215,4.861,1.215,7.292s0,4.861-1.215,7.292c0,2.431-1.215,3.646-3.646,6.076-1.215,1.215-2.431,2.431-4.861,2.431a9.283,9.283,0,0,1-6.076,2.431c-2.431,0-3.646-1.215-6.076-2.431a9.213,9.213,0,0,1-4.861-2.431c-1.215-2.431-2.43-3.646-3.646-6.076S441.014,51.027,441.014,48.6Z" transform="translate(91.572 3.659)" fill="#ff4800"/>
      <path id="Контур_951" data-name="Контур 951" d="M487,78.763h15.8V32.583H527.1v46.18h17.014V18H487Z" transform="translate(105.133 3.875)" fill="#ff4800"/>
      <path id="Контур_952" data-name="Контур 952" d="M2.484,20.323a5.688,5.688,0,0,0,0,9.722L3.7,31.26,2.484,32.475a5.688,5.688,0,0,0,0,9.722h0a5.874,5.874,0,0,0,8.507,0l6.076-6.076h1.215c0-1.215,1.215-2.431,1.215-3.646V30.045c0-1.215-1.215-2.431-1.215-3.646H17.067l-6.076-6.076a5.874,5.874,0,0,0-8.507,0Z" transform="translate(0.25 3.982)" fill="#ff4800" fill-rule="evenodd"/>
      <path id="Контур_953" data-name="Контур 953" d="M2.484,48.323a5.688,5.688,0,0,0,0,9.722L3.7,59.26,2.484,60.475a5.688,5.688,0,0,0,0,9.722h0a5.874,5.874,0,0,0,8.507,0l6.076-6.076h1.215c0-1.215,1.215-2.431,1.215-3.646V58.045c0-1.215-1.215-2.431-1.215-3.646H17.067l-6.076-6.076a5.874,5.874,0,0,0-8.507,0Z" transform="translate(0.25 10.009)" fill="#ff4800" fill-rule="evenodd"/>
    </g>
  </g>
</svg>
